M48
; DRILL file {KiCad 7.0.11-2.fc38} date lun. 25 mars 2024 15:47:05
; FORMAT={-:-/ absolute / metric / decimal}
; #@! TF.CreationDate,2024-03-25T15:47:05+01:00
; #@! TF.GenerationSoftware,Kicad,Pcbnew,7.0.11-2.fc38
; #@! TF.FileFunction,Plated,1,6,PTH
FMAT,2
METRIC
; #@! TA.AperFunction,Plated,PTH,ViaDrill
T1C0.152
; #@! TA.AperFunction,Plated,PTH,ViaDrill
T2C0.400
; #@! TA.AperFunction,Plated,PTH,ComponentDrill
T3C0.750
; #@! TA.AperFunction,Plated,PTH,ComponentDrill
T4C2.700
; #@! TA.AperFunction,Plated,PTH,ComponentDrill
T5C4.200
%
G90
G05
T1
X109.275Y-58.25
X110.0Y-59.0
X111.25Y-62.625
X111.275Y-61.875
X111.275Y-63.5
X113.55Y-117.25
X113.75Y-56.45
X114.25Y-56.775
X114.75Y-56.45
X115.25Y-56.775
X115.5Y-88.95
X115.75Y-56.45
X115.775Y-68.35
X116.25Y-56.775
X116.5Y-68.228
X117.075Y-103.75
X117.75Y-56.45
X118.25Y-56.775
X118.4Y-121.875
X118.775Y-54.0
X118.845Y-56.761
X119.25Y-58.3
X119.5Y-54.7
X119.5Y-56.385
X120.475Y-54.7
X120.475Y-56.385
X120.8Y-66.7
X121.35Y-56.375
X121.425Y-54.665
X122.75Y-59.725
X122.8Y-56.4
X127.15Y-64.75
X127.975Y-65.25
X133.125Y-103.05
X133.35Y-91.6
X144.55Y-45.9
T2
X65.675Y-62.45
X66.225Y-68.425
X66.75Y-63.275
X67.3Y-59.5
X68.825Y-80.55
X68.825Y-107.225
X68.98Y-75.2
X69.0Y-92.875
X69.005Y-77.725
X69.005Y-78.75
X69.005Y-98.65
X69.025Y-116.325
X69.03Y-101.225
X69.03Y-102.275
X69.05Y-69.325
X69.075Y-58.325
X69.1Y-56.05
X69.2Y-66.85
X69.275Y-95.275
X69.275Y-118.725
X69.3Y-53.675
X69.425Y-64.475
X69.505Y-78.25
X69.555Y-101.75
X69.75Y-92.875
X69.775Y-116.325
X69.85Y-56.05
X69.95Y-66.85
X70.1Y-61.325
X70.1Y-62.05
X70.1Y-72.325
X70.1Y-73.075
X70.8Y-95.9
X71.55Y-119.425
X72.0Y-53.22
X72.0Y-57.5
X72.0Y-64.07
X72.0Y-75.425
X72.0Y-79.75
X72.0Y-103.25
X72.025Y-98.95
X72.325Y-89.625
X72.4Y-113.5
X72.5Y-119.425
X72.95Y-53.22
X72.95Y-64.07
X72.95Y-75.425
X72.975Y-94.025
X72.975Y-98.95
X73.25Y-95.9
X73.45Y-60.825
X73.45Y-71.625
X73.45Y-83.05
X73.45Y-119.425
X73.475Y-106.55
X73.55Y-58.947
X73.55Y-69.748
X73.625Y-89.625
X73.7Y-113.5
X73.875Y-53.22
X73.875Y-64.07
X73.875Y-75.425
X73.875Y-98.925
X74.25Y-42.254
X74.25Y-47.154
X74.275Y-79.7
X74.275Y-92.9
X74.275Y-103.2
X74.325Y-91.35
X74.4Y-119.425
X74.45Y-86.0
X74.575Y-109.475
X75.1Y-85.375
X75.1Y-86.65
X75.175Y-108.875
X75.175Y-110.05
X81.85Y-48.8
X83.125Y-45.9
X84.375Y-45.9
X85.65Y-48.8
X86.925Y-45.9
X88.2Y-45.9
X89.45Y-48.8
X92.0Y-48.8
X93.275Y-45.9
X94.55Y-45.9
X95.825Y-48.8
X97.075Y-45.9
X98.325Y-45.9
X99.625Y-48.8
X99.8Y-90.55
X102.175Y-48.8
X103.425Y-45.9
X104.7Y-45.9
X104.775Y-61.75
X105.975Y-45.9
X105.975Y-48.8
X107.225Y-45.9
X107.25Y-48.8
X108.7Y-117.4
X109.75Y-42.254
X109.75Y-47.154
X110.6Y-67.65
X110.9Y-61.0
X110.925Y-58.975
X111.075Y-65.75
X111.075Y-66.6
X111.1Y-117.125
X111.1Y-118.6
X112.8Y-112.55
X112.85Y-68.325
X112.9Y-114.525
X113.5Y-59.0
X113.5Y-61.0
X113.5Y-65.888
X113.75Y-68.325
X114.5Y-77.4
X114.55Y-87.125
X115.1Y-60.6
X115.1Y-64.351
X116.75Y-54.275
X117.025Y-56.65
X117.1Y-115.675
X117.25Y-59.0
X117.25Y-65.888
X118.4Y-119.075
X118.5Y-104.05
X118.825Y-87.15
X118.9Y-60.6
X118.9Y-64.329
X119.35Y-68.3
X119.35Y-119.05
X119.5Y-65.888
X120.0Y-104.05
X120.125Y-68.325
X120.25Y-87.125
X120.3Y-119.05
X120.5Y-62.75
X120.5Y-63.75
X120.525Y-61.075
X121.5Y-104.05
X122.4Y-67.4
X122.9Y-64.0
X122.9Y-66.25
X122.925Y-62.7
X123.0Y-104.05
X123.2Y-79.05
X123.2Y-109.975
X123.375Y-61.525
X123.7Y-112.5
X124.2Y-109.975
X124.25Y-42.254
X124.25Y-47.154
X124.425Y-59.125
X124.75Y-67.0
X125.775Y-61.525
X126.375Y-63.25
X126.725Y-101.75
X126.75Y-45.9
X126.775Y-48.775
X127.475Y-111.825
X128.025Y-48.775
X129.3Y-45.9
X130.575Y-45.9
X131.825Y-48.775
X134.35Y-48.775
X135.65Y-45.9
X136.925Y-45.9
X138.2Y-48.775
X139.45Y-45.9
X140.725Y-45.9
X142.0Y-48.775
X144.6Y-48.775
X145.8Y-45.9
X147.075Y-45.9
X148.35Y-48.775
X149.625Y-45.9
X150.9Y-45.9
X152.175Y-48.775
X153.425Y-45.9
X154.7Y-45.9
X155.975Y-48.775
X156.6Y-50.55
X157.25Y-48.775
X159.75Y-42.254
X159.75Y-47.154
T3
X101.675Y-90.0
X101.675Y-91.5
X101.675Y-93.0
X101.675Y-94.5
X101.675Y-96.0
X101.675Y-97.5
X101.675Y-99.0
X101.675Y-100.5
X103.658Y-101.444
X103.675Y-89.5
X103.675Y-91.0
X103.675Y-92.5
X103.675Y-94.0
X103.675Y-95.5
X103.675Y-97.0
X103.675Y-98.5
X103.675Y-100.0
X105.675Y-90.5
X105.675Y-92.0
X105.675Y-93.5
X105.675Y-95.0
X105.675Y-96.5
X105.675Y-98.0
X105.675Y-99.5
X105.675Y-101.0
X111.0Y-84.175
X111.0Y-106.825
X111.5Y-80.175
X111.5Y-108.825
X112.0Y-82.175
X112.0Y-110.825
X112.5Y-84.175
X112.5Y-106.825
X113.0Y-80.175
X113.0Y-108.825
X113.5Y-82.175
X113.5Y-110.825
X114.0Y-84.175
X114.0Y-106.825
X114.5Y-80.175
X114.5Y-108.825
X115.0Y-82.175
X115.0Y-110.825
X115.5Y-84.175
X115.5Y-106.825
X116.0Y-80.175
X116.0Y-108.825
X116.5Y-82.175
X116.5Y-110.825
X117.0Y-84.175
X117.0Y-106.825
X117.5Y-80.175
X117.5Y-108.825
X118.0Y-82.175
X118.0Y-110.825
X118.5Y-84.175
X118.5Y-106.825
X119.0Y-80.175
X119.0Y-108.825
X119.5Y-82.175
X119.5Y-110.825
X120.0Y-84.175
X120.0Y-106.825
X120.5Y-80.175
X120.5Y-108.825
X121.0Y-82.175
X121.0Y-110.825
X121.5Y-84.175
X121.5Y-106.825
X122.0Y-80.175
X122.0Y-108.825
X122.5Y-82.175
X122.5Y-110.825
X123.0Y-84.175
X123.0Y-106.825
X128.325Y-90.0
X128.325Y-91.5
X128.325Y-93.0
X128.325Y-94.5
X128.325Y-96.0
X128.325Y-97.5
X128.325Y-99.0
X128.325Y-100.5
X130.325Y-91.0
X130.325Y-92.5
X130.325Y-94.0
X130.325Y-95.5
X130.325Y-97.0
X130.325Y-98.5
X130.325Y-100.0
X130.325Y-101.5
X130.342Y-89.556
X132.325Y-90.5
X132.325Y-92.0
X132.325Y-93.5
X132.325Y-95.0
X132.325Y-96.5
X132.325Y-98.0
X132.325Y-99.5
X132.325Y-101.0
T4
X63.0Y-55.0
X63.0Y-125.0
X97.0Y-76.0
X97.0Y-115.0
X137.0Y-76.0
X137.0Y-115.0
X171.0Y-55.0
X171.0Y-125.0
T5
X117.0Y-95.5
M30
