%TF.GenerationSoftware,KiCad,Pcbnew,7.0.9-1.fc38*%
%TF.CreationDate,2024-01-23T12:46:16+01:00*%
%TF.ProjectId,FEAD_extend_MM,46454144-5f65-4787-9465-6e645f4d4d2e,rev?*%
%TF.SameCoordinates,Original*%
%TF.FileFunction,Profile,NP*%
%FSLAX46Y46*%
G04 Gerber Fmt 4.6, Leading zero omitted, Abs format (unit mm)*
G04 Created by KiCad (PCBNEW 7.0.9-1.fc38) date 2024-01-23 12:46:16*
%MOMM*%
%LPD*%
G01*
G04 APERTURE LIST*
%TA.AperFunction,Profile*%
%ADD10C,0.050000*%
%TD*%
G04 APERTURE END LIST*
D10*
X165000000Y-70000000D02*
X205000000Y-70000000D01*
X205000000Y-85540000D01*
X165000000Y-85540000D01*
X165000000Y-70000000D01*
M02*
