%TF.GenerationSoftware,KiCad,Pcbnew,7.0.9-1.fc38*%
%TF.CreationDate,2024-01-23T12:46:16+01:00*%
%TF.ProjectId,FEAD_extend_MM,46454144-5f65-4787-9465-6e645f4d4d2e,rev?*%
%TF.SameCoordinates,Original*%
%TF.FileFunction,Legend,Bot*%
%TF.FilePolarity,Positive*%
%FSLAX46Y46*%
G04 Gerber Fmt 4.6, Leading zero omitted, Abs format (unit mm)*
G04 Created by KiCad (PCBNEW 7.0.9-1.fc38) date 2024-01-23 12:46:16*
%MOMM*%
%LPD*%
G01*
G04 APERTURE LIST*
%ADD10C,0.100000*%
%ADD11C,0.150000*%
G04 APERTURE END LIST*
D10*
X185514285Y-74279847D02*
X185514285Y-74565561D01*
X185514285Y-74565561D02*
X185533332Y-74622704D01*
X185533332Y-74622704D02*
X185571428Y-74660800D01*
X185571428Y-74660800D02*
X185628570Y-74679847D01*
X185628570Y-74679847D02*
X185666666Y-74679847D01*
X185114285Y-74679847D02*
X185342856Y-74679847D01*
X185228570Y-74679847D02*
X185228570Y-74279847D01*
X185228570Y-74279847D02*
X185266666Y-74336990D01*
X185266666Y-74336990D02*
X185304761Y-74375085D01*
X185304761Y-74375085D02*
X185342856Y-74394133D01*
X184866666Y-74279847D02*
X184828571Y-74279847D01*
X184828571Y-74279847D02*
X184790475Y-74298895D01*
X184790475Y-74298895D02*
X184771428Y-74317942D01*
X184771428Y-74317942D02*
X184752380Y-74356038D01*
X184752380Y-74356038D02*
X184733333Y-74432228D01*
X184733333Y-74432228D02*
X184733333Y-74527466D01*
X184733333Y-74527466D02*
X184752380Y-74603657D01*
X184752380Y-74603657D02*
X184771428Y-74641752D01*
X184771428Y-74641752D02*
X184790475Y-74660800D01*
X184790475Y-74660800D02*
X184828571Y-74679847D01*
X184828571Y-74679847D02*
X184866666Y-74679847D01*
X184866666Y-74679847D02*
X184904761Y-74660800D01*
X184904761Y-74660800D02*
X184923809Y-74641752D01*
X184923809Y-74641752D02*
X184942856Y-74603657D01*
X184942856Y-74603657D02*
X184961904Y-74527466D01*
X184961904Y-74527466D02*
X184961904Y-74432228D01*
X184961904Y-74432228D02*
X184942856Y-74356038D01*
X184942856Y-74356038D02*
X184923809Y-74317942D01*
X184923809Y-74317942D02*
X184904761Y-74298895D01*
X184904761Y-74298895D02*
X184866666Y-74279847D01*
X184580952Y-74317942D02*
X184561904Y-74298895D01*
X184561904Y-74298895D02*
X184523809Y-74279847D01*
X184523809Y-74279847D02*
X184428571Y-74279847D01*
X184428571Y-74279847D02*
X184390476Y-74298895D01*
X184390476Y-74298895D02*
X184371428Y-74317942D01*
X184371428Y-74317942D02*
X184352381Y-74356038D01*
X184352381Y-74356038D02*
X184352381Y-74394133D01*
X184352381Y-74394133D02*
X184371428Y-74451276D01*
X184371428Y-74451276D02*
X184600000Y-74679847D01*
X184600000Y-74679847D02*
X184352381Y-74679847D01*
X200678142Y-75441847D02*
X200906713Y-75441847D01*
X200792427Y-75441847D02*
X200792427Y-75041847D01*
X200792427Y-75041847D02*
X200830523Y-75098990D01*
X200830523Y-75098990D02*
X200868618Y-75137085D01*
X200868618Y-75137085D02*
X200906713Y-75156133D01*
X200525761Y-75327561D02*
X200335285Y-75327561D01*
X200563856Y-75441847D02*
X200430523Y-75041847D01*
X200430523Y-75041847D02*
X200297190Y-75441847D01*
D11*
%TO.C,J102*%
X202000000Y-77150000D02*
X202000000Y-75500000D01*
X202000000Y-77150000D02*
X168000000Y-77150000D01*
X202000000Y-73500000D02*
X202000000Y-72500000D01*
X168000000Y-77150000D02*
X168000000Y-75500000D01*
X168000000Y-73500000D02*
X168000000Y-72500000D01*
X168000000Y-72500000D02*
X202000000Y-72500000D01*
%TD*%
M02*
