%TF.GenerationSoftware,KiCad,Pcbnew,7.0.9-1.fc38*%
%TF.CreationDate,2024-01-23T12:46:16+01:00*%
%TF.ProjectId,FEAD_extend_MM,46454144-5f65-4787-9465-6e645f4d4d2e,rev?*%
%TF.SameCoordinates,Original*%
%TF.FileFunction,Paste,Bot*%
%TF.FilePolarity,Positive*%
%FSLAX46Y46*%
G04 Gerber Fmt 4.6, Leading zero omitted, Abs format (unit mm)*
G04 Created by KiCad (PCBNEW 7.0.9-1.fc38) date 2024-01-23 12:46:16*
%MOMM*%
%LPD*%
G01*
G04 APERTURE LIST*
%ADD10R,1.200000X2.700000*%
%ADD11R,0.800000X0.800000*%
G04 APERTURE END LIST*
D10*
%TO.C,J102*%
X167250000Y-76950000D03*
D11*
X200240000Y-76500000D03*
X200240000Y-77770000D03*
D10*
X202750000Y-76950000D03*
D11*
X198970000Y-76500000D03*
X198970000Y-77770000D03*
D10*
X167250000Y-72050000D03*
D11*
X197700000Y-76500000D03*
X197700000Y-77770000D03*
D10*
X202750000Y-72050000D03*
D11*
X196430000Y-76500000D03*
X196430000Y-77770000D03*
X195160000Y-76500000D03*
X195160000Y-77770000D03*
X193890000Y-76500000D03*
X193890000Y-77770000D03*
X192620000Y-76500000D03*
X192620000Y-77770000D03*
X191350000Y-76500000D03*
X191350000Y-77770000D03*
X190080000Y-76500000D03*
X190080000Y-77770000D03*
X188810000Y-76500000D03*
X188810000Y-77770000D03*
X187540000Y-76500000D03*
X187540000Y-77770000D03*
X186270000Y-76500000D03*
X186270000Y-77770000D03*
X185000000Y-76500000D03*
X185000000Y-77770000D03*
X183730000Y-76500000D03*
X183730000Y-77770000D03*
X182460000Y-76500000D03*
X182460000Y-77770000D03*
X181190000Y-76500000D03*
X181190000Y-77770000D03*
X179920000Y-76500000D03*
X179920000Y-77770000D03*
X178650000Y-76500000D03*
X178650000Y-77770000D03*
X177380000Y-76500000D03*
X177380000Y-77770000D03*
X176110000Y-76500000D03*
X176110000Y-77770000D03*
X174840000Y-76500000D03*
X174840000Y-77770000D03*
X173570000Y-76500000D03*
X173570000Y-77770000D03*
X172300000Y-76500000D03*
X172300000Y-77770000D03*
X171030000Y-76500000D03*
X171030000Y-77770000D03*
X169760000Y-76500000D03*
X169760000Y-77770000D03*
%TD*%
M02*
