{
  "board": {
    "3dviewports": [],
    "design_settings": {
      "defaults": {
        "board_outline_line_width": 0.049999999999999996,
        "copper_line_width": 0.19999999999999998,
        "copper_text_italic": false,
        "copper_text_size_h": 1.5,
        "copper_text_size_v": 1.5,
        "copper_text_thickness": 0.3,
        "copper_text_upright": false,
        "courtyard_line_width": 0.049999999999999996,
        "dimension_precision": 4,
        "dimension_units": 3,
        "dimensions": {
          "arrow_length": 1270000,
          "extension_offset": 500000,
          "keep_text_aligned": true,
          "suppress_zeroes": false,
          "text_position": 0,
          "units_format": 1
        },
        "fab_line_width": 0.09999999999999999,
        "fab_text_italic": false,
        "fab_text_size_h": 1.0,
        "fab_text_size_v": 1.0,
        "fab_text_thickness": 0.15,
        "fab_text_upright": false,
        "other_line_width": 0.09999999999999999,
        "other_text_italic": false,
        "other_text_size_h": 1.0,
        "other_text_size_v": 1.0,
        "other_text_thickness": 0.15,
        "other_text_upright": false,
        "pads": {
          "drill": 0.762,
          "height": 1.524,
          "width": 1.524
        },
        "silk_line_width": 0.09999999999999999,
        "silk_text_italic": false,
        "silk_text_size_h": 1.0,
        "silk_text_size_v": 1.0,
        "silk_text_thickness": 0.09999999999999999,
        "silk_text_upright": false,
        "zones": {
          "min_clearance": 0.5
        }
      },
      "diff_pair_dimensions": [],
      "drc_exclusions": [],
      "meta": {
        "version": 2
      },
      "rule_severities": {
        "annular_width": "error",
        "clearance": "error",
        "connection_width": "warning",
        "copper_edge_clearance": "error",
        "copper_sliver": "warning",
        "courtyards_overlap": "error",
        "diff_pair_gap_out_of_range": "error",
        "diff_pair_uncoupled_length_too_long": "error",
        "drill_out_of_range": "error",
        "duplicate_footprints": "warning",
        "extra_footprint": "warning",
        "footprint": "error",
        "footprint_type_mismatch": "ignore",
        "hole_clearance": "error",
        "hole_near_hole": "error",
        "invalid_outline": "error",
        "isolated_copper": "warning",
        "item_on_disabled_layer": "error",
        "items_not_allowed": "error",
        "length_out_of_range": "error",
        "lib_footprint_issues": "warning",
        "lib_footprint_mismatch": "warning",
        "malformed_courtyard": "error",
        "microvia_drill_out_of_range": "error",
        "missing_courtyard": "ignore",
        "missing_footprint": "warning",
        "net_conflict": "warning",
        "npth_inside_courtyard": "ignore",
        "padstack": "warning",
        "pth_inside_courtyard": "ignore",
        "shorting_items": "error",
        "silk_edge_clearance": "warning",
        "silk_over_copper": "warning",
        "silk_overlap": "warning",
        "skew_out_of_range": "error",
        "solder_mask_bridge": "error",
        "starved_thermal": "error",
        "text_height": "warning",
        "text_thickness": "warning",
        "through_hole_pad_without_hole": "error",
        "too_many_vias": "error",
        "track_dangling": "warning",
        "track_width": "error",
        "tracks_crossing": "error",
        "unconnected_items": "error",
        "unresolved_variable": "error",
        "via_dangling": "warning",
        "zones_intersect": "error"
      },
      "rules": {
        "max_error": 0.005,
        "min_clearance": 0.19999999999999998,
        "min_connection": 0.0,
        "min_copper_edge_clearance": 0.5,
        "min_hole_clearance": 0.25,
        "min_hole_to_hole": 0.19999999999999998,
        "min_microvia_diameter": 0.19999999999999998,
        "min_microvia_drill": 0.09999999999999999,
        "min_resolved_spokes": 2,
        "min_silk_clearance": 0.0,
        "min_text_height": 0.7999999999999999,
        "min_text_thickness": 0.08,
        "min_through_hole_diameter": 0.3,
        "min_track_width": 0.19999999999999998,
        "min_via_annular_width": 0.09999999999999999,
        "min_via_diameter": 0.5,
        "solder_mask_to_copper_clearance": 0.0,
        "use_height_for_length_calcs": true
      },
      "teardrop_options": [
        {
          "td_allow_use_two_tracks": true,
          "td_curve_segcount": 5,
          "td_on_pad_in_zone": false,
          "td_onpadsmd": true,
          "td_onroundshapesonly": false,
          "td_ontrackend": false,
          "td_onviapad": true
        }
      ],
      "teardrop_parameters": [
        {
          "td_curve_segcount": 0,
          "td_height_ratio": 1.0,
          "td_length_ratio": 0.5,
          "td_maxheight": 2.0,
          "td_maxlen": 1.0,
          "td_target_name": "td_round_shape",
          "td_width_to_size_filter_ratio": 0.9
        },
        {
          "td_curve_segcount": 0,
          "td_height_ratio": 1.0,
          "td_length_ratio": 0.5,
          "td_maxheight": 2.0,
          "td_maxlen": 1.0,
          "td_target_name": "td_rect_shape",
          "td_width_to_size_filter_ratio": 0.9
        },
        {
          "td_curve_segcount": 0,
          "td_height_ratio": 1.0,
          "td_length_ratio": 0.5,
          "td_maxheight": 2.0,
          "td_maxlen": 1.0,
          "td_target_name": "td_track_end",
          "td_width_to_size_filter_ratio": 0.9
        }
      ],
      "track_widths": [],
      "via_dimensions": [],
      "zones_allow_external_fillets": false
    },
    "layer_presets": [],
    "viewports": []
  },
  "boards": [],
  "cvpcb": {
    "equivalence_files": []
  },
  "erc": {
    "erc_exclusions": [],
    "meta": {
      "version": 0
    },
    "pin_map": [
      [
        0,
        0,
        0,
        0,
        0,
        0,
        1,
        0,
        0,
        0,
        0,
        2
      ],
      [
        0,
        2,
        0,
        1,
        0,
        0,
        1,
        0,
        2,
        2,
        2,
        2
      ],
      [
        0,
        0,
        0,
        0,
        0,
        0,
        1,
        0,
        1,
        0,
        1,
        2
      ],
      [
        0,
        1,
        0,
        0,
        0,
        0,
        1,
        1,
        2,
        1,
        1,
        2
      ],
      [
        0,
        0,
        0,
        0,
        0,
        0,
        1,
        0,
        0,
        0,
        0,
        2
      ],
      [
        0,
        0,
        0,
        0,
        0,
        0,
        0,
        0,
        0,
        0,
        0,
        2
      ],
      [
        1,
        1,
        1,
        1,
        1,
        0,
        1,
        1,
        1,
        1,
        1,
        2
      ],
      [
        0,
        0,
        0,
        1,
        0,
        0,
        1,
        0,
        0,
        0,
        0,
        2
      ],
      [
        0,
        2,
        1,
        2,
        0,
        0,
        1,
        0,
        2,
        2,
        2,
        2
      ],
      [
        0,
        2,
        0,
        1,
        0,
        0,
        1,
        0,
        2,
        0,
        0,
        2
      ],
      [
        0,
        2,
        1,
        1,
        0,
        0,
        1,
        0,
        2,
        0,
        0,
        2
      ],
      [
        2,
        2,
        2,
        2,
        2,
        2,
        2,
        2,
        2,
        2,
        2,
        2
      ]
    ],
    "rule_severities": {
      "bus_definition_conflict": "error",
      "bus_entry_needed": "error",
      "bus_to_bus_conflict": "error",
      "bus_to_net_conflict": "error",
      "conflicting_netclasses": "error",
      "different_unit_footprint": "error",
      "different_unit_net": "error",
      "duplicate_reference": "error",
      "duplicate_sheet_names": "error",
      "endpoint_off_grid": "warning",
      "extra_units": "error",
      "global_label_dangling": "warning",
      "hier_label_mismatch": "error",
      "label_dangling": "error",
      "lib_symbol_issues": "warning",
      "missing_bidi_pin": "warning",
      "missing_input_pin": "warning",
      "missing_power_pin": "error",
      "missing_unit": "warning",
      "multiple_net_names": "warning",
      "net_not_bus_member": "warning",
      "no_connect_connected": "warning",
      "no_connect_dangling": "warning",
      "pin_not_connected": "error",
      "pin_not_driven": "error",
      "pin_to_pin": "warning",
      "power_pin_not_driven": "error",
      "similar_labels": "warning",
      "simulation_model_issue": "ignore",
      "unannotated": "error",
      "unit_value_mismatch": "error",
      "unresolved_variable": "error",
      "wire_dangling": "error"
    }
  },
  "libraries": {
    "pinned_footprint_libs": [],
    "pinned_symbol_libs": []
  },
  "meta": {
    "filename": "LOADBOARD_CATIA_R0.kicad_pro",
    "version": 1
  },
  "net_settings": {
    "classes": [
      {
        "bus_width": 12,
        "clearance": 0.2,
        "diff_pair_gap": 0.25,
        "diff_pair_via_gap": 0.25,
        "diff_pair_width": 0.2,
        "line_style": 0,
        "microvia_diameter": 0.3,
        "microvia_drill": 0.1,
        "name": "Default",
        "pcb_color": "rgba(0, 0, 0, 0.000)",
        "schematic_color": "rgba(0, 0, 0, 0.000)",
        "track_width": 0.2,
        "via_diameter": 0.6,
        "via_drill": 0.3,
        "wire_width": 6
      },
      {
        "bus_width": 12,
        "clearance": 0.2,
        "diff_pair_gap": 0.25,
        "diff_pair_via_gap": 0.25,
        "diff_pair_width": 0.2,
        "line_style": 0,
        "microvia_diameter": 0.3,
        "microvia_drill": 0.1,
        "name": "ANALOG",
        "pcb_color": "rgba(0, 0, 0, 0.000)",
        "schematic_color": "rgba(0, 0, 0, 0.000)",
        "track_width": 0.2,
        "via_diameter": 0.6,
        "via_drill": 0.3,
        "wire_width": 6
      },
      {
        "bus_width": 12,
        "clearance": 0.2,
        "diff_pair_gap": 0.25,
        "diff_pair_via_gap": 0.25,
        "diff_pair_width": 0.2,
        "line_style": 0,
        "microvia_diameter": 0.3,
        "microvia_drill": 0.1,
        "name": "ANALOG_EQ",
        "pcb_color": "rgba(0, 0, 0, 0.000)",
        "schematic_color": "rgba(0, 0, 0, 0.000)",
        "track_width": 0.2,
        "via_diameter": 0.6,
        "via_drill": 0.3,
        "wire_width": 6
      },
      {
        "bus_width": 12,
        "clearance": 0.2,
        "diff_pair_gap": 0.25,
        "diff_pair_via_gap": 0.25,
        "diff_pair_width": 0.2,
        "line_style": 0,
        "microvia_diameter": 0.3,
        "microvia_drill": 0.1,
        "name": "All Nets",
        "pcb_color": "rgba(0, 0, 0, 0.000)",
        "schematic_color": "rgba(0, 0, 0, 0.000)",
        "track_width": 0.2,
        "via_diameter": 0.6,
        "via_drill": 0.3,
        "wire_width": 6
      },
      {
        "bus_width": 12,
        "clearance": 0.2,
        "diff_pair_gap": 0.25,
        "diff_pair_via_gap": 0.25,
        "diff_pair_width": 0.2,
        "line_style": 0,
        "microvia_diameter": 0.3,
        "microvia_drill": 0.1,
        "name": "DIGITAL",
        "pcb_color": "rgba(0, 0, 0, 0.000)",
        "schematic_color": "rgba(0, 0, 0, 0.000)",
        "track_width": 0.2,
        "via_diameter": 0.6,
        "via_drill": 0.3,
        "wire_width": 6
      },
      {
        "bus_width": 12,
        "clearance": 0.2,
        "diff_pair_gap": 0.25,
        "diff_pair_via_gap": 0.25,
        "diff_pair_width": 0.2,
        "line_style": 0,
        "microvia_diameter": 0.3,
        "microvia_drill": 0.1,
        "name": "POWER",
        "pcb_color": "rgba(0, 0, 0, 0.000)",
        "schematic_color": "rgba(0, 0, 0, 0.000)",
        "track_width": 0.2,
        "via_diameter": 0.6,
        "via_drill": 0.3,
        "wire_width": 6
      }
    ],
    "meta": {
      "version": 3
    },
    "net_colors": null,
    "netclass_assignments": null,
    "netclass_patterns": [
      {
        "netclass": "ANALOG_EQ",
        "pattern": "Filt_L-"
      },
      {
        "netclass": "ANALOG_EQ",
        "pattern": "Filt_L+"
      },
      {
        "netclass": "ANALOG_EQ",
        "pattern": "Filt_H-"
      },
      {
        "netclass": "ANALOG_EQ",
        "pattern": "Filt_H+"
      },
      {
        "netclass": "ANALOG_EQ",
        "pattern": "Catia_L-"
      },
      {
        "netclass": "ANALOG_EQ",
        "pattern": "Catia_L+"
      },
      {
        "netclass": "ANALOG_EQ",
        "pattern": "Catia_H-"
      },
      {
        "netclass": "ANALOG_EQ",
        "pattern": "Catia_H+"
      },
      {
        "netclass": "ANALOG_EQ",
        "pattern": "ADCin_L-"
      },
      {
        "netclass": "ANALOG_EQ",
        "pattern": "ADCin_L+"
      },
      {
        "netclass": "ANALOG_EQ",
        "pattern": "ADCin_H-"
      },
      {
        "netclass": "ANALOG_EQ",
        "pattern": "ADCin_H+"
      },
      {
        "netclass": "DIGITAL",
        "pattern": "TestMode"
      },
      {
        "netclass": "DIGITAL",
        "pattern": "PwpRstb"
      },
      {
        "netclass": "DIGITAL",
        "pattern": "NetR123_2"
      },
      {
        "netclass": "DIGITAL",
        "pattern": "NetR122_2"
      },
      {
        "netclass": "DIGITAL",
        "pattern": "NetR121_2"
      },
      {
        "netclass": "DIGITAL",
        "pattern": "NetR120_2"
      },
      {
        "netclass": "DIGITAL",
        "pattern": "I2C_SDA_LV2"
      },
      {
        "netclass": "DIGITAL",
        "pattern": "I2C_SDA_LV1"
      },
      {
        "netclass": "DIGITAL",
        "pattern": "I2C_SDA"
      },
      {
        "netclass": "DIGITAL",
        "pattern": "I2C_SCL_LV2"
      },
      {
        "netclass": "DIGITAL",
        "pattern": "I2C_SCL_LV1"
      },
      {
        "netclass": "DIGITAL",
        "pattern": "I2C_SCL"
      },
      {
        "netclass": "DIGITAL",
        "pattern": "CalBusy"
      },
      {
        "netclass": "DIGITAL",
        "pattern": "Alert_2V5"
      },
      {
        "netclass": "DIGITAL",
        "pattern": "Alert_1V2"
      },
      {
        "netclass": "DIGITAL",
        "pattern": "A_PllLock"
      },
      {
        "netclass": "DIGITAL",
        "pattern": "A_Clk_N"
      },
      {
        "netclass": "DIGITAL",
        "pattern": "A_Clk_P"
      },
      {
        "netclass": "DIGITAL",
        "pattern": "A_D0_N"
      },
      {
        "netclass": "DIGITAL",
        "pattern": "A_D0_P"
      },
      {
        "netclass": "DIGITAL",
        "pattern": "B_D0_N"
      },
      {
        "netclass": "DIGITAL",
        "pattern": "B_D0_P"
      },
      {
        "netclass": "DIGITAL",
        "pattern": "C_D0_N"
      },
      {
        "netclass": "DIGITAL",
        "pattern": "C_D0_P"
      },
      {
        "netclass": "DIGITAL",
        "pattern": "Clk_Pin_N"
      },
      {
        "netclass": "DIGITAL",
        "pattern": "Clk_pin_P"
      },
      {
        "netclass": "DIGITAL",
        "pattern": "D_D0_N"
      },
      {
        "netclass": "DIGITAL",
        "pattern": "D_D0_P"
      },
      {
        "netclass": "DIGITAL",
        "pattern": "NetU201_58"
      },
      {
        "netclass": "DIGITAL",
        "pattern": "ReSync_N"
      },
      {
        "netclass": "DIGITAL",
        "pattern": "ReSync_P"
      },
      {
        "netclass": "ANALOG",
        "pattern": "Vdac_buf"
      },
      {
        "netclass": "ANALOG",
        "pattern": "Temp_CATIA"
      },
      {
        "netclass": "ANALOG",
        "pattern": "NetR210_2"
      },
      {
        "netclass": "ANALOG",
        "pattern": "NetR127_2"
      },
      {
        "netclass": "ANALOG",
        "pattern": "NetR117_1"
      },
      {
        "netclass": "ANALOG",
        "pattern": "NetR115_1"
      },
      {
        "netclass": "ANALOG",
        "pattern": "NetR108_1"
      },
      {
        "netclass": "ANALOG",
        "pattern": "NetR106_1"
      },
      {
        "netclass": "ANALOG",
        "pattern": "NetP101_1"
      },
      {
        "netclass": "ANALOG",
        "pattern": "NetL101_2"
      },
      {
        "netclass": "ANALOG",
        "pattern": "NetC223_1"
      },
      {
        "netclass": "ANALOG",
        "pattern": "NetC221_1"
      },
      {
        "netclass": "ANALOG",
        "pattern": "NetC217_2"
      },
      {
        "netclass": "ANALOG",
        "pattern": "NetC120_1"
      },
      {
        "netclass": "ANALOG",
        "pattern": "NetC119_1"
      },
      {
        "netclass": "ANALOG",
        "pattern": "NetC118_2"
      },
      {
        "netclass": "ANALOG",
        "pattern": "NetC109_1"
      },
      {
        "netclass": "ANALOG",
        "pattern": "NetC108_1"
      },
      {
        "netclass": "ANALOG",
        "pattern": "G10_calib"
      },
      {
        "netclass": "ANALOG",
        "pattern": "C_Leak"
      },
      {
        "netclass": "ANALOG",
        "pattern": "C_Ch"
      },
      {
        "netclass": "ANALOG",
        "pattern": "Calib_N"
      },
      {
        "netclass": "ANALOG",
        "pattern": "Calib_P"
      },
      {
        "netclass": "ANALOG",
        "pattern": "NetC202_2"
      },
      {
        "netclass": "ANALOG",
        "pattern": "NetC203_2"
      },
      {
        "netclass": "ANALOG",
        "pattern": "NetC205_2"
      },
      {
        "netclass": "ANALOG",
        "pattern": "NetC208_2"
      },
      {
        "netclass": "ANALOG",
        "pattern": "NetC219_2"
      },
      {
        "netclass": "ANALOG",
        "pattern": "NetC254_2"
      },
      {
        "netclass": "ANALOG",
        "pattern": "TIA_in"
      },
      {
        "netclass": "ANALOG",
        "pattern": "Vref_reg"
      },
      {
        "netclass": "ANALOG",
        "pattern": "NetR217_1"
      },
      {
        "netclass": "ANALOG",
        "pattern": "NetR219_1"
      },
      {
        "netclass": "POWER",
        "pattern": "VDD_filt"
      },
      {
        "netclass": "POWER",
        "pattern": "V3P6_FE"
      },
      {
        "netclass": "POWER",
        "pattern": "V2P5A"
      },
      {
        "netclass": "POWER",
        "pattern": "V1P2_ref2"
      },
      {
        "netclass": "POWER",
        "pattern": "V1P2_ref1"
      },
      {
        "netclass": "POWER",
        "pattern": "V1P2_Int"
      },
      {
        "netclass": "POWER",
        "pattern": "V1P2_HL"
      },
      {
        "netclass": "POWER",
        "pattern": "NetR110_1"
      },
      {
        "netclass": "POWER",
        "pattern": "NetC210_1"
      },
      {
        "netclass": "POWER",
        "pattern": "Add_6"
      },
      {
        "netclass": "POWER",
        "pattern": "Add_4"
      },
      {
        "netclass": "POWER",
        "pattern": "NetC104_2"
      },
      {
        "netclass": "POWER",
        "pattern": "NetC105_2"
      },
      {
        "netclass": "POWER",
        "pattern": "NetC106_1"
      },
      {
        "netclass": "POWER",
        "pattern": "NetC107_1"
      },
      {
        "netclass": "POWER",
        "pattern": "NetC114_2"
      },
      {
        "netclass": "POWER",
        "pattern": "NetC115_2"
      },
      {
        "netclass": "POWER",
        "pattern": "NetC116_1"
      },
      {
        "netclass": "POWER",
        "pattern": "NetC117_1"
      },
      {
        "netclass": "POWER",
        "pattern": "V1P2_FE"
      },
      {
        "netclass": "POWER",
        "pattern": "V1P2_gen"
      },
      {
        "netclass": "POWER",
        "pattern": "V2P5_FE"
      },
      {
        "netclass": "POWER",
        "pattern": "V2P5_gen"
      },
      {
        "netclass": "POWER",
        "pattern": "VOCM"
      }
    ]
  },
  "pcbnew": {
    "last_paths": {
      "gencad": "",
      "idf": "",
      "netlist": "",
      "specctra_dsn": "",
      "step": "",
      "vrml": ""
    },
    "page_layout_descr_file": ""
  },
  "schematic": {
    "annotate_start_num": 0,
    "drawing": {
      "dashed_lines_dash_length_ratio": 12.0,
      "dashed_lines_gap_length_ratio": 3.0,
      "default_line_thickness": 6.0,
      "default_text_size": 50.0,
      "field_names": [],
      "intersheets_ref_own_page": false,
      "intersheets_ref_prefix": "",
      "intersheets_ref_short": false,
      "intersheets_ref_show": false,
      "intersheets_ref_suffix": "",
      "junction_size_choice": 3,
      "label_size_ratio": 0.375,
      "pin_symbol_size": 25.0,
      "text_offset_ratio": 0.15
    },
    "legacy_lib_dir": "",
    "legacy_lib_list": [],
    "meta": {
      "version": 1
    },
    "net_format_name": "",
    "page_layout_descr_file": "",
    "plot_directory": "",
    "spice_current_sheet_as_root": false,
    "spice_external_command": "spice \"%I\"",
    "spice_model_current_sheet_as_root": true,
    "spice_save_all_currents": false,
    "spice_save_all_voltages": false,
    "subpart_first_id": 65,
    "subpart_id_separator": 0
  },
  "sheets": [],
  "text_variables": {}
}
